…
c_df
```

::: {.cell-output .cell-output-stdout}

```
# A tibble: 22 × 2
   treatment phase_shift
   <chr>           <dbl>
 1 Control          0.53
 2 Control          0.36
 3 Control          0.2 
 4 Control         -0.37
 5 Control         -0.6 
 6 Control         -0.64
 7 Control         -0.68
 8 Control         -1.27
 9 Knees            0.73
10 Knees            0.31
# ℹ 12 more rows
```
…
